[{
    "id": "usr7840",
    "username": "shiom0",
    "email": "jcosty0@boston.com",
    "profilePicture": "http://dummyimage.com/200x200.png/cc0000/ffffff",
    "isDeleted": false
  },
  {
    "id": "usr8449",
    "username": "ymatic1",
    "email": "ablenkin1@weibo.com",
    "profilePicture": "http://dummyimage.com/200x200.png/ff4444/ffffff",
    "isDeleted": false
  },
  {
    "id": "usr4215",
    "username": "cfoulks2",
    "email": "lheinecke2@loc.gov",
    "profilePicture": "http://dummyimage.com/200x200.png/ff4444/ffffff",
    "isDeleted": false
  },
  {
    "id": "usr5147",
    "username": "claidlow3",
    "email": "rgrisenthwaite3@weebly.com",
    "profilePicture": "http://dummyimage.com/200x200.png/5fa2dd/ffffff",
    "isDeleted": false
  },
  {
    "id": "usr4982",
    "username": "gsollitt4",
    "email": "edairton4@miitbeian.gov.cn",
    "profilePicture": "http://dummyimage.com/200x200.png/dddddd/000000",
    "isDeleted": false
  },
  {
    "id": "usr5791",
    "username": "kharbor5",
    "email": "psmallbone5@jalbum.net",
    "profilePicture": "http://dummyimage.com/200x200.png/ff4444/ffffff",
    "isDeleted": false
  },
  {
    "id": "usr5556",
    "username": "jlyon6",
    "email": "gmuncey6@desdev.cn",
    "profilePicture": "http://dummyimage.com/200x200.png/5fa2dd/ffffff",
    "isDeleted": false
  },
  {
    "id": "usr9562",
    "username": "hohanvey7",
    "email": "mclericoates7@independent.co.uk",
    "profilePicture": "http://dummyimage.com/200x200.png/5fa2dd/ffffff",
    "isDeleted": false
  },
  {
    "id": "usr0130",
    "username": "lhamer8",
    "email": "epriden8@clickbank.net",
    "profilePicture": "http://dummyimage.com/200x200.png/5fa2dd/ffffff",
    "isDeleted": false
  },
  {
    "id": "usr7433",
    "username": "mbarthelme9",
    "email": "agilyott9@blogs.com",
    "profilePicture": "http://dummyimage.com/200x200.png/cc0000/ffffff",
    "isDeleted": false
  },
  {
    "id": "usr9980",
    "username": "amaneylawsa",
    "email": "ahefferona@google.cn",
    "profilePicture": "http://dummyimage.com/200x200.png/5fa2dd/ffffff",
    "isDeleted": false
  },
  {
    "id": "usr1266",
    "username": "rszymonowiczb",
    "email": "ktenbrugb@cdc.gov",
    "profilePicture": "http://dummyimage.com/200x200.png/cc0000/ffffff",
    "isDeleted": false
  },
  {
    "id": "usr3557",
    "username": "hcolloffc",
    "email": "tsteensonc@constantcontact.com",
    "profilePicture": "http://dummyimage.com/200x200.png/cc0000/ffffff",
    "isDeleted": false
  },
  {
    "id": "usr4175",
    "username": "ewillasd",
    "email": "dcasacciad@psu.edu",
    "profilePicture": "http://dummyimage.com/200x200.png/ff4444/ffffff",
    "isDeleted": false
  },
  {
    "id": "usr0647",
    "username": "tmeneure",
    "email": "hbuckneye@moonfruit.com",
    "profilePicture": "http://dummyimage.com/200x200.png/dddddd/000000",
    "isDeleted": false
  },
  {
    "id": "usr1705",
    "username": "floughrenf",
    "email": "rmelwallf@example.com",
    "profilePicture": "http://dummyimage.com/200x200.png/cc0000/ffffff",
    "isDeleted": false
  },
  {
    "id": "usr9151",
    "username": "aatkynsg",
    "email": "mgruszczakg@purevolume.com",
    "profilePicture": "http://dummyimage.com/200x200.png/cc0000/ffffff",
    "isDeleted": false
  },
  {
    "id": "usr9169",
    "username": "cdelaph",
    "email": "gbrewinsh@lycos.com",
    "profilePicture": "http://dummyimage.com/200x200.png/cc0000/ffffff",
    "isDeleted": false
  },
  {
    "id": "usr0986",
    "username": "wdeverehunti",
    "email": "avaneyi@unicef.org",
    "profilePicture": "http://dummyimage.com/200x200.png/dddddd/000000",
    "isDeleted": false
  },
  {
    "id": "usr3483",
    "username": "sdankj",
    "email": "jsplavenj@wunderground.com",
    "profilePicture": "http://dummyimage.com/200x200.png/dddddd/000000",
    "isDeleted": false
  }
]